{
  "numberOfFloors": 10,
  "currentPosition": 3,
  "numberOfTicks": 10,
  "internal": [
    {
      "tick": 0,
      "floor": 5
    }
  ],
  "external": [
    {
      "tick": 0,
      "floor": 4,
      "direction": "UP"
    },
    {
      "tick": 0,
      "floor": 4,
      "direction": "DOWN"
    }
  ]
}